{
  "version": "v4",
  "repo": "borisyankov/DefinitelyTyped",
  "ref": "master",
  "path": "public/typings",
  "bundle": "public/typings/tsd.d.ts",
  "installed": {
    "node/node.d.ts": {
      "commit": "b6970132c4ddf4b0ffe7952e9e3b08e23f96ea8f"
    },
    "socket.io-client/socket.io-client.d.ts": {
      "commit": "448c3509f1ae76930ebd2d79df23e288172f5a0a"
    }
  }
}
